<?xml version="1.0" encoding="UTF-8"?>
<!DOCTYPE svg PUBLIC "-//W3C//DTD SVG 1.1//EN" "http://www.w3.org/Graphics/SVG/1.1/DTD/svg11.dtd">
<!-- Creator: CorelDRAW X6 -->
<svg xmlns="http://www.w3.org/2000/svg" xml:space="preserve" width="14.8476mm" height="11.907mm" version="1.1" style="shape-rendering:geometricPrecision; text-rendering:geometricPrecision; image-rendering:optimizeQuality; fill-rule:evenodd; clip-rule:evenodd"
viewBox="0 0 239 192"
 xmlns:xlink="http://www.w3.org/1999/xlink">
 <defs>
  <style type="text/css">
   <![CDATA[
    .str0 {stroke:#2B2A29;stroke-width:1.22809}
    .str1 {stroke:#2B2A29;stroke-width:2.4175}
    .str2 {stroke:#2B2A29;stroke-width:4.94782}
    .fil1 {fill:none}
    .fil0 {fill:#2B2A29}
   ]]>
  </style>
     <clipPath id="id0">
      <path d="M22 2l0 187c-11,0 -19,-20 -19,-46l-1 -94c0,-26 9,-47 20,-47z"/>
     </clipPath>
     <clipPath id="id1">
      <path d="M122 2l0 187c11,0 20,-20 20,-46l0 -94c0,-26 -9,-47 -20,-47z"/>
     </clipPath>
 </defs>
 <g id="Layer_x0020_1">
  <metadata id="CorelCorpID_0Corel-Layer"/>
  <g id="_620623760">
   <path class="fil0 str0" d="M233 91c3,0 6,2 6,5 0,3 -3,5 -5,5 -3,0 -6,-2 -6,-5 0,-3 3,-5 5,-5z"/>
   <path class="fil0 str0" d="M72 91c3,0 6,2 6,5 0,3 -3,5 -6,5 -3,0 -5,-2 -5,-5 0,-3 2,-5 5,-5z"/>
   <g>
    <g style="clip-path:url(#id0)">
     <line class="fil1 str1" x1="19" y1="199" x2="105" y2= "50" />
     <line id="1" class="fil1 str1" x1="14" y1="196" x2="100" y2= "47" />
     <line id="2" class="fil1 str1" x1="8" y1="193" x2="94" y2= "44" />
     <line id="3" class="fil1 str1" x1="2" y1="189" x2="88" y2= "41" />
     <line id="4" class="fil1 str1" x1="-3" y1="186" x2="83" y2= "37" />
     <line id="5" class="fil1 str1" x1="-9" y1="183" x2="77" y2= "34" />
     <line id="6" class="fil1 str1" x1="-14" y1="180" x2="72" y2= "31" />
     <line id="7" class="fil1 str1" x1="-20" y1="177" x2="66" y2= "28" />
     <line id="8" class="fil1 str1" x1="-25" y1="173" x2="60" y2= "24" />
     <line id="9" class="fil1 str1" x1="-31" y1="170" x2="55" y2= "21" />
     <line id="10" class="fil1 str1" x1="-37" y1="167" x2="49" y2= "18" />
     <line id="11" class="fil1 str1" x1="-42" y1="164" x2="44" y2= "15" />
     <line id="12" class="fil1 str1" x1="-48" y1="160" x2="38" y2= "12" />
     <line id="13" class="fil1 str1" x1="-53" y1="157" x2="33" y2= "8" />
     <line id="14" class="fil1 str1" x1="-59" y1="154" x2="27" y2= "5" />
     <line id="15" class="fil1 str1" x1="-65" y1="151" x2="21" y2= "2" />
     <line id="16" class="fil1 str1" x1="-70" y1="148" x2="16" y2= "-1" />
     <line id="17" class="fil1 str1" x1="-76" y1="144" x2="10" y2= "-5" />
    </g>
    <path id="18" class="fil1 str2" d="M22 2l0 187c-11,0 -19,-20 -19,-46l-1 -94c0,-26 9,-47 20,-47z"/>
   </g>
   <g>
    <g style="clip-path:url(#id1)">
     <line class="fil1 str1" x1="139" y1="199" x2="225" y2= "50" />
     <line id="1" class="fil1 str1" x1="133" y1="196" x2="219" y2= "47" />
     <line id="2" class="fil1 str1" x1="128" y1="193" x2="214" y2= "44" />
     <line id="3" class="fil1 str1" x1="122" y1="189" x2="208" y2= "41" />
     <line id="4" class="fil1 str1" x1="117" y1="186" x2="203" y2= "37" />
     <line id="5" class="fil1 str1" x1="111" y1="183" x2="197" y2= "34" />
     <line id="6" class="fil1 str1" x1="106" y1="180" x2="191" y2= "31" />
     <line id="7" class="fil1 str1" x1="100" y1="177" x2="186" y2= "28" />
     <line id="8" class="fil1 str1" x1="94" y1="173" x2="180" y2= "24" />
     <line id="9" class="fil1 str1" x1="89" y1="170" x2="175" y2= "21" />
     <line id="10" class="fil1 str1" x1="83" y1="167" x2="169" y2= "18" />
     <line id="11" class="fil1 str1" x1="78" y1="164" x2="164" y2= "15" />
     <line id="12" class="fil1 str1" x1="72" y1="160" x2="158" y2= "12" />
     <line id="13" class="fil1 str1" x1="66" y1="157" x2="152" y2= "8" />
     <line id="14" class="fil1 str1" x1="61" y1="154" x2="147" y2= "5" />
     <line id="15" class="fil1 str1" x1="55" y1="151" x2="141" y2= "2" />
     <line id="16" class="fil1 str1" x1="50" y1="148" x2="136" y2= "-1" />
     <line id="17" class="fil1 str1" x1="44" y1="144" x2="130" y2= "-5" />
    </g>
    <path id="18" class="fil1 str2" d="M122 2l0 187c11,0 20,-20 20,-46l0 -94c0,-26 -9,-47 -20,-47z"/>
   </g>
   <rect class="fil1 str2" x="22" y="2" width="99.9606" height="186.954"/>
   <line class="fil1 str2" x1="142" y1="96" x2="233" y2= "96" />
  </g>
 </g>
</svg>
